{
  "project_info": {
    "project_number": "77520704614",
    "firebase_url": "https://mygamesapp-90f10.firebaseio.com",
    "project_id": "mygamesapp-90f10",
    "storage_bucket": "mygamesapp-90f10.appspot.com"
  },
  "client": [
    {
      "client_info": {
        "mobilesdk_app_id": "1:77520704614:android:9c2e2b207c3586fe2409a7",
        "android_client_info": {
          "package_name": "com.u.mygamesapp"
        }
      },
      "oauth_client": [
        {
          "client_id": "77520704614-uflgben6754e711jqhrjp6kq61ocn2cd.apps.googleusercontent.com",
          "client_type": 3
        }
      ],
      "api_key": [
        {
          "current_key": "AIzaSyChEt31NlQ3SzlTydyLHK_6zwJJke31Km0"
        }
      ],
      "services": {
        "appinvite_service": {
          "other_platform_oauth_client": [
            {
              "client_id": "77520704614-uflgben6754e711jqhrjp6kq61ocn2cd.apps.googleusercontent.com",
              "client_type": 3
            }
          ]
        }
      }
    }
  ],
  "configuration_version": "1"
}